<svg width="15" height="16" viewBox="0 0 15 16" fill="none" xmlns="http://www.w3.org/2000/svg">
<path d="M12.072 0.609919L12.072 0.609976L12.0765 0.61447C12.3106 0.844333 12.4457 1.13601 12.4457 1.47189V14.5281C12.4457 14.8624 12.298 15.1681 12.0765 15.3855C11.8425 15.6154 11.5435 15.75 11.1972 15.75H1.49851C1.15383 15.75 0.840566 15.603 0.619189 15.3855C0.385169 15.1557 0.25 14.864 0.25 14.5281V1.47189C0.25 1.13763 0.397777 0.831949 0.619189 0.61447C0.853219 0.384598 1.15224 0.25 1.49851 0.25H11.1972C11.5471 0.25 11.8564 0.387019 12.072 0.609919Z" transform="translate(2.30469)" stroke="#5A6270" stroke-width="0.5"/>
<path d="M5.9454 5.40183L5.95045 5.39687L5.95521 5.39164C6.05674 5.27994 6.12811 5.20251 6.18998 5.14688C6.25061 5.09238 6.28461 5.07537 6.30513 5.06912C6.33837 5.05901 6.41161 5.05314 6.68598 5.19579C6.68606 5.19583 6.68614 5.19588 6.68623 5.19592L8.10214 5.93766C8.13506 5.95983 8.16425 5.98269 8.19422 6.00722C8.20072 6.01254 8.20784 6.01844 8.21541 6.02472C8.22589 6.0334 8.23722 6.04279 8.24896 6.05234C8.28087 6.1371 8.28608 6.23225 8.25706 6.34628L8.25502 6.3543L8.25351 6.36244C8.22948 6.49226 8.16667 6.63372 8.08062 6.77486C7.89323 7.07161 7.60558 7.35095 7.37666 7.48388C7.14811 7.60983 6.91071 7.69094 6.66337 7.71793L6.66337 7.71788L6.65827 7.71854C5.67138 7.84684 4.48268 7.38969 3.37749 6.59463L3.37698 6.59427C2.2926 5.81825 1.31934 4.75395 0.752206 3.74538C0.492117 3.27945 0.315625 2.8103 0.257891 2.41335C0.227734 2.20599 0.284198 1.91311 0.42259 1.59165C0.55861 1.27569 0.761455 0.961082 0.987071 0.718029L0.98732 0.71776C1.11531 0.579471 1.26198 0.457072 1.39371 0.377149H1.40536L1.4602 0.348143C1.63218 0.257186 1.77647 0.232312 1.90687 0.261868L1.90686 0.261897L1.91064 0.262693C2.02814 0.287424 2.16671 0.382856 2.28991 0.65146L2.90841 2.02225L2.92653 2.06241C3.00603 2.2955 2.98009 2.44896 2.92561 2.5657C2.86184 2.70236 2.74756 2.81614 2.60133 2.95179L2.60126 2.95172L2.59617 2.95672C2.53797 3.01388 2.47692 3.07775 2.42884 3.13988C2.40485 3.17089 2.37964 3.20712 2.35944 3.24635C2.34128 3.2816 2.31508 3.34197 2.31508 3.41561V3.45687L2.32834 3.49595C2.34529 3.54588 2.38165 3.61309 2.41557 3.67232C2.45398 3.73938 2.50405 3.82126 2.56154 3.91L2.56153 3.91L2.56287 3.91203C2.77244 4.22872 3.07138 4.57096 3.17552 4.69018C3.17905 4.69423 3.18236 4.69802 3.18544 4.70154C3.38165 4.92904 3.7827 5.25419 4.1986 5.53726C4.50621 5.75952 4.85569 5.95467 5.112 6.01277L5.11198 6.01287L5.11908 6.01427C5.22547 6.03517 5.31378 5.99464 5.35616 5.97165C5.40571 5.94476 5.45002 5.90964 5.48521 5.87865C5.55321 5.81876 5.61929 5.74531 5.66659 5.69127L5.73913 5.62002C5.78429 5.57566 5.82419 5.53203 5.85784 5.49508L5.86128 5.4913C5.89493 5.45437 5.92055 5.42624 5.9454 5.40183ZM2.90213 1.94765C2.90214 1.9476 2.90215 1.9482 2.90216 1.94962L2.90213 1.94765Z" transform="translate(5 4)" fill="#D6F3FF" stroke="#5A6270" stroke-width="0.5"/>
<rect x="-0.25" y="-0.25" width="3.5" height="1" rx="0.5" transform="translate(1 3)" fill="#D6F3FF" stroke="#5A6270" stroke-width="0.5"/>
<rect x="-0.25" y="-0.25" width="3.5" height="1" rx="0.5" transform="translate(1 6)" fill="#D6F3FF" stroke="#5A6270" stroke-width="0.5"/>
<rect x="-0.25" y="-0.25" width="3.5" height="1" rx="0.5" transform="translate(1 9)" fill="#D6F3FF" stroke="#5A6270" stroke-width="0.5"/>
<rect x="-0.25" y="-0.25" width="3.5" height="1" rx="0.5" transform="translate(1 12)" fill="#D6F3FF" stroke="#5A6270" stroke-width="0.5"/>
</svg>
