<svg width="19" height="21" viewBox="0 0 19 21" fill="none" xmlns="http://www.w3.org/2000/svg">
<path d="M0.25 2.98226C0.25 1.47284 1.47091 0.250078 2.97589 0.25C4.48033 0.251805 5.70034 1.4737 5.70206 2.98255C5.70191 4.4919 4.48099 5.71453 2.97603 5.71453C1.47098 5.71453 0.25 4.49174 0.25 2.98226Z" transform="translate(9.60693 6.89722)" fill="#D6F3FF" stroke="#5A6270" stroke-width="0.5"/>
<path d="M1.52171 0.289976L1.52042 0.289505C1.28272 0.201738 1.01562 0.262994 0.839532 0.445973L1.52171 0.289976ZM1.52171 0.289976C1.7598 0.376405 1.92499 0.595585 1.94251 0.849412C1.96002 1.10323 1.82649 1.34323 1.60249 1.46172L1.40244 1.56754M1.52171 0.289976L1.40244 1.56754M1.40244 1.56754L1.48789 1.7771M1.40244 1.56754L1.48789 1.7771M1.48789 1.7771C1.61938 2.09958 1.4716 2.46797 1.15498 2.60973C0.838632 2.75137 0.46679 2.61608 0.314967 2.30311L0.314964 2.3031M1.48789 1.7771L0.314964 2.3031M0.314964 2.3031C0.162984 1.98983 0.286681 1.61262 0.593577 1.45062L0.7942 1.34472M0.314964 2.3031L0.7942 1.34472M0.7942 1.34472L0.708226 1.13479M0.7942 1.34472L0.708226 1.13479M0.708226 1.13479C0.611788 0.899302 0.663411 0.629035 0.83952 0.445986L0.708226 1.13479Z" transform="translate(11.5801 8.38763)" stroke="#5A6270" stroke-width="0.5"/>
<path d="M10.058 0.514165C10.4649 0.370491 10.9161 0.539608 11.129 0.915619C11.342 1.29167 11.2555 1.76655 10.9237 2.04292C11.1645 2.20393 11.3949 2.38 11.6135 2.57008C11.974 2.0461 11.9993 1.36037 11.6784 0.811123C11.3575 0.261871 10.7483 -0.0516171 10.1159 0.00699164C9.48347 0.0656004 8.94203 0.485682 8.72706 1.0846L10.2025 1.62378C10.2556 1.74617 10.4813 1.6725 10.5838 1.54808C10.6864 1.42366 10.6749 1.29733 10.5984 1.18748C10.5219 1.07764 10.3817 1.03238 10.2556 1.07684C10.1007 1.13097 9.93131 1.0493 9.87683 0.89423C9.82236 0.739164 9.90337 0.569174 10.058 0.514165Z" transform="translate(4.25195 3.61478)" fill="#D6F3FF"/>
<path d="M1.05577 2.24601C0.473351 2.50672 0.074305 3.05936 0.00929703 3.69525C-0.055676 4.33114 0.223259 4.95336 0.740846 5.32696C0.877593 4.96658 1.04458 4.61838 1.23995 4.2862C0.9863 4.09143 0.856319 3.77532 0.89946 3.45799C0.942601 3.14065 1.15224 2.87089 1.44864 2.75122C1.74505 2.63156 2.08275 2.68035 2.33337 2.87906C2.49212 2.72204 2.65806 2.57305 2.83118 2.43207C2.3152 2.05627 1.63819 1.98529 1.05577 2.24601Z" transform="translate(4.25195 3.61478)" fill="#D6F3FF"/>
<path d="M17.1049 7.91525C18.0778 6.3042 18.1084 4.29266 17.1851 2.6526C16.2617 1.01253 14.5277 -0.00136162 12.6486 1.3725e-06C10.7212 -6.85246e-05 8.95133 1.06674 8.04816 2.77303C7.28669 2.21245 6.38338 1.87754 5.44118 1.80642C5.43563 1.80607 5.43033 1.80572 5.42475 1.80569C5.30349 1.79688 5.18198 1.78937 5.05968 1.78937C2.49277 1.79311 0.334569 3.72062 0.0366621 6.27554C0.0347789 6.28375 0.0341162 6.29193 0.0328956 6.30035C-0.271498 8.97325 1.56881 11.416 4.2175 11.8547C4.5424 14.577 6.4541 16.8439 9.07859 17.6188C11.703 18.3937 14.5359 17.5277 16.2819 15.4169C18.0279 13.306 18.3516 10.3559 17.1049 7.91525ZM8.42722 3.3558C9.10265 1.81498 10.5605 0.763907 12.2331 0.611916C13.9056 0.459924 15.5284 1.23099 16.4694 2.62488C17.4105 4.01877 17.521 5.81509 16.758 7.31428C16.514 6.93718 16.234 6.58483 15.9217 6.26222C16.455 5.55081 16.5166 4.59018 16.0784 3.81628C15.6402 3.04238 14.7857 2.60258 13.9027 2.69646C13.0198 2.79033 12.2764 3.40004 12.0101 4.24887C10.6613 4.0489 9.28376 4.25792 8.05458 4.84904C8.09322 4.33373 8.21922 3.82872 8.42722 3.3558ZM14.9998 4.19411C14.7869 3.8181 14.3357 3.64898 13.9288 3.79265C13.7742 3.84766 13.6931 4.01765 13.7476 4.17272C13.8021 4.32779 13.9715 4.40946 14.1264 4.35532C14.2525 4.31087 14.3927 4.35613 14.4692 4.46597C14.5457 4.57582 14.5397 4.7233 14.4546 4.82657C14.3695 4.92984 14.2261 4.9636 14.104 4.90909C14.0939 4.90622 14.0836 4.90395 14.0733 4.90227C13.6039 4.66595 13.1088 4.48502 12.5978 4.36308C12.8128 3.76417 13.3543 3.34409 13.9867 3.28548C14.6191 3.22687 15.2283 3.54036 15.5492 4.08961C15.8701 4.63886 15.8448 5.32459 15.4843 5.84857C15.2657 5.65849 15.0353 5.48242 14.7945 5.32141C15.1263 5.04503 15.2128 4.57015 14.9998 4.19411ZM4.93929 2.39195C4.54969 3.08194 4.05781 3.70867 3.48041 4.25062C2.68936 5.01725 1.7359 5.59509 0.691031 5.94115C1.1186 3.91655 2.87494 2.44923 4.93929 2.39195ZM4.16686 11.0344C4.16686 11.1044 4.17007 11.1736 4.17216 11.243C2.09149 10.8198 0.595995 8.98678 0.595612 6.85921C0.595612 6.76457 0.603982 6.67203 0.609771 6.57882C1.84457 6.23367 2.97252 5.58198 3.88929 4.68409C4.58377 4.03401 5.16123 3.26888 5.59634 2.42229C6.39977 2.51962 7.16138 2.8351 7.7989 3.33465C7.56761 3.92399 7.44673 4.551 7.44227 5.18427C7.35947 5.23519 7.27783 5.28768 7.1973 5.34178C6.51618 4.75874 5.56593 4.60863 4.73886 4.95343C3.91178 5.29824 3.3482 6.07951 3.28078 6.97461C3.21337 7.86975 3.65357 8.7269 4.41961 9.1922C4.25206 9.79192 4.167 10.4117 4.16686 11.0344ZM3.88008 6.97374C3.94509 6.33785 4.34414 5.78521 4.92656 5.52449C5.50898 5.26378 6.18598 5.33476 6.70196 5.71056C6.52884 5.85154 6.3629 6.00053 6.20415 6.15755C5.95354 5.95883 5.61584 5.91005 5.31943 6.02971C5.02302 6.14937 4.81339 6.41914 4.77025 6.73647C4.7271 7.05381 4.85708 7.36992 5.11073 7.56468C4.91536 7.89687 4.74838 8.24506 4.61163 8.60545C4.09404 8.23185 3.81511 7.60963 3.88008 6.97374ZM5.79614 6.59944C5.67042 6.74769 5.55107 6.90126 5.43815 7.06013C5.33708 6.95438 5.32867 6.79033 5.41848 6.67476C5.50828 6.55918 5.66906 6.52717 5.79614 6.59944ZM11.0117 17.2972C7.56015 17.2972 4.76205 14.4932 4.76205 11.0344C4.76205 7.57559 7.56015 4.77163 11.0117 4.77163C14.4633 4.77163 17.2614 7.57559 17.2614 11.0344C17.2575 14.4916 14.4617 17.2933 11.0117 17.2972Z" transform="translate(0.380859 0.336273)" fill="#5A6270"/>
</svg>
