<svg width="23" height="7" viewBox="0 0 23 7" fill="none" xmlns="http://www.w3.org/2000/svg">
<path d="M5 0L0 10.5L5 21" transform="translate(1 6) rotate(-90)" stroke="#E0E0E0" stroke-width="0.75"/>
</svg>
