<svg width="10" height="14" viewBox="0 0 10 14" fill="none" xmlns="http://www.w3.org/2000/svg">
<path d="M9.90467 -0.5H0.76192C0.0658329 -0.5 -0.5 0.0641397 -0.5 0.760916C-0.5 1.45769 0.0658329 2.02183 0.76192 2.02183H9.90467C10.6008 2.02183 11.1666 1.45769 11.1666 0.760916C11.1666 0.0641394 10.6008 -0.5 9.90467 -0.5Z" transform="translate(4.04248 12.4766) rotate(-90)" fill="#5A6270" stroke="white"/>
<path d="M2.54712 3.80337L4.70106 1.65227C5.19377 1.16021 5.19377 0.360838 4.70106 -0.131225C4.20871 -0.622925 3.40942 -0.622925 2.91707 -0.131225L2.91706 -0.131217L-0.130465 2.91244C-0.130468 2.91244 -0.130471 2.91244 -0.130474 2.91245C-0.623178 3.40451 -0.623175 4.20388 -0.130466 4.69594L2.91714 7.73953L2.91714 7.73953L2.91902 7.74139C3.16484 7.98431 3.48733 8.10795 3.80989 8.10795C4.13218 8.10795 4.45692 7.9844 4.70291 7.73624L4.34781 7.38425M2.54712 3.80337L2.19334 4.15669L4.34781 6.30832C4.64495 6.60507 4.64495 7.0875 4.34781 7.38425M2.54712 3.80337L4.70113 5.95453C5.19384 6.4466 5.19384 7.24597 4.70113 7.73803L4.34781 7.38425M2.54712 3.80337L0.222855 3.26623C-0.0742848 3.56297 -0.0742848 4.0454 0.222855 4.34215L3.27046 7.38574C3.41982 7.53333 3.61482 7.60795 3.80989 7.60795C4.00496 7.60795 4.19995 7.5334 4.34781 7.38425" transform="translate(1 12.4766) rotate(-90)" fill="#5A6270" stroke="white"/>
</svg>
