<svg width="20" height="21" viewBox="0 0 20 21" fill="none" xmlns="http://www.w3.org/2000/svg">
<path d="M9.14247 6.5027L9.14276 6.50347C9.21998 6.70309 9.12236 6.92354 8.93639 6.99903C8.93629 6.99907 8.93619 6.99911 8.93608 6.99915L3.07137 9.35618L3.07082 9.3564C2.88756 9.43057 2.67465 9.34101 2.59841 9.14398L0.276603 3.12717L0.276531 3.12698C0.199322 2.92738 0.296919 2.70694 0.482859 2.63144C0.482977 2.63139 0.483095 2.63134 0.483213 2.63129L6.36398 0.274768C6.54803 0.203152 6.75971 0.292243 6.83859 0.487525L9.14247 6.5027Z" transform="translate(3.604 0.409546)" stroke="#5A6270" stroke-width="0.5"/>
<path d="M0.615942 0.25H6.91724C7.11403 0.25 7.28318 0.414776 7.28318 0.630019V7.07886C7.28318 7.29411 7.11407 7.45888 6.91724 7.45888H0.615942C0.419113 7.45888 0.25 7.29411 0.25 7.07886V0.630019C0.25 0.414764 0.419113 0.25 0.615942 0.25Z" transform="translate(0.381836 10.5994)" stroke="#5A6270" stroke-width="0.5"/>
<path d="M8.6658 2.38172L8.66516 2.38418L7.05974 8.627C7.0597 8.62717 7.05966 8.62733 7.05962 8.62749C7.00549 8.83323 6.80306 8.9468 6.61336 8.89485L6.61294 8.89473L0.522842 7.2383C0.522779 7.23829 0.522716 7.23827 0.522653 7.23825C0.330603 7.18554 0.208533 6.97916 0.26296 6.77122L0.263066 6.77082L1.88251 0.541423L1.88251 0.541423L1.88275 0.540497C1.93616 0.33176 2.13862 0.213396 2.33216 0.260411L8.41632 1.91522C8.60407 1.97248 8.72062 2.17724 8.6658 2.38172Z" transform="translate(8.11865 8.88916)" fill="#D6F3FF" stroke="#5A6270" stroke-width="0.5"/>
<path d="M3.14909 2.64541C3.08624 2.52312 3.0031 2.41296 2.9034 2.31978L1.17323 0.454503L0.969067 0.22798C0.917767 0.173561 0.860931 0.124938 0.79951 0.0828635C0.737397 0.0396382 0.66633 0.011765 0.591889 0.00145643C0.414805 -0.011197 0.241658 0.0591049 0.121281 0.192586C0.0737013 0.252313 0.040525 0.322615 0.0243911 0.397873C0.00682985 0.486358 -0.00130186 0.57657 0.000168787 0.666869C0.000168787 0.769513 0.000168787 0.857998 0.000168787 0.932326V3.50903C0.00708948 3.61521 0.0128427 3.69662 0.0174709 3.75325C0.0201094 3.80648 0.0306203 3.85899 0.0486141 3.90899C0.082266 3.99203 0.149007 4.05645 0.232012 4.08596C0.316272 4.12135 0.410739 4.12135 0.494999 4.08596C0.580686 4.06105 0.649114 3.995 0.678398 3.90899C0.70435 3.77267 0.71365 3.63353 0.70608 3.49487V2.98873L2.07292 2.44012L2.39819 2.79407L2.54699 2.94626C2.58938 2.9921 2.637 3.03249 2.68886 3.0666C2.72779 3.09058 2.77161 3.10509 2.81689 3.10908C2.86772 3.11284 2.91867 3.10434 2.96569 3.0843C3.04701 3.05014 3.11258 2.98559 3.14909 2.90379C3.18352 2.82128 3.18352 2.72792 3.14909 2.64541ZM0.674937 2.38703L0.626492 0.780131L1.67844 1.98354L0.674937 2.38703Z" transform="translate(7.2334 3.27838)" fill="#5A6270"/>
<path d="M3.3354 0.9936C3.24716 0.770262 3.10559 0.573116 2.92362 0.420212C2.72287 0.248904 2.48597 0.127766 2.23155 0.0662688C2.00645 0.00260327 1.77136 -0.0154034 1.53948 0.0131774C1.31646 0.0410062 1.10179 0.117015 0.909693 0.236161C0.710939 0.361369 0.539998 0.527721 0.407942 0.724602C0.259147 0.948692 0.150189 1.19796 0.0861297 1.4608C0.0411451 1.62848 0.0132894 1.80046 0.00308135 1.97402C-0.00582905 2.13635 0.00459531 2.29921 0.0342246 2.45892C0.0621236 2.61059 0.108622 2.75805 0.172638 2.89781C0.239207 3.04125 0.328009 3.17274 0.435626 3.28715C0.54281 3.39944 0.666603 3.49381 0.802422 3.56676C0.957445 3.64923 1.12112 3.71334 1.29033 3.75789C1.50717 3.8216 1.73434 3.83965 1.95818 3.81099C2.14677 3.7813 2.32718 3.71135 2.48761 3.6057C2.62023 3.52093 2.73732 3.41315 2.83365 3.28715C2.91557 3.18278 2.97561 3.06231 3.01012 2.93321C3.03443 2.84981 3.0231 2.75982 2.97898 2.68545C2.93694 2.6109 2.86695 2.55719 2.7852 2.53679C2.70527 2.50733 2.61634 2.51918 2.54644 2.56865C2.47961 2.62466 2.4223 2.69164 2.37688 2.76685C2.26944 2.92679 2.11757 3.0501 1.94088 3.1208C1.76098 3.18079 1.56712 3.18079 1.38722 3.1208C1.22376 3.08832 1.07194 3.0113 0.947757 2.89781C0.82764 2.75805 0.752722 2.58373 0.733215 2.39875C0.71003 2.16068 0.73235 1.92022 0.798962 1.69087C0.860686 1.33546 1.03889 1.01218 1.30417 0.774155C1.52581 0.59767 1.81739 0.542278 2.08621 0.625499C2.25019 0.66399 2.39873 0.752918 2.51184 0.880338C2.62257 1.02147 2.69852 1.18778 2.7333 1.36524C2.75095 1.45921 2.78243 1.54991 2.82673 1.63424C2.87137 1.69764 2.93837 1.74082 3.01358 1.75458C3.0927 1.77696 3.17743 1.76272 3.24543 1.71564C3.31572 1.67215 3.36663 1.60229 3.3873 1.52097C3.42377 1.34391 3.40564 1.15964 3.3354 0.9936Z" transform="translate(10.9893 11.4251)" fill="#5A6270"/>
<path d="M2.27939 1.74066C2.60903 1.61474 2.8253 1.29 2.8192 0.930126C2.81951 0.826333 2.8019 0.723291 2.7673 0.625735C2.73334 0.528976 2.68295 0.439119 2.6185 0.360278C2.55496 0.281747 2.47892 0.214719 2.39358 0.16207C2.28739 0.0970768 2.16987 0.053807 2.04755 0.0346499C1.89983 0.0115551 1.75056 0.000936774 1.60116 0.00279497H0.452325C0.327709 -0.0110973 0.202877 0.0271739 0.10629 0.108979C0.0273509 0.208304 -0.00993412 0.335547 0.00247988 0.462922V3.23783C-0.0101504 3.36468 0.025794 3.49157 0.10283 3.59178C0.19933 3.67655 0.325979 3.71628 0.452325 3.7015H1.55618C1.7173 3.69641 1.8779 3.68102 2.03717 3.65549C2.16775 3.63978 2.29578 3.60646 2.4178 3.55638C2.58866 3.4836 2.73443 3.36039 2.83651 3.20244C2.94075 3.0356 2.9949 2.8412 2.99222 2.64321C3.00018 2.20529 2.69961 1.82476 2.27939 1.74066ZM0.739534 0.572643H1.31741C1.51872 0.562025 1.72002 0.593305 1.90913 0.664669C2.03998 0.729308 2.1174 0.870708 2.10291 1.01861C2.10369 1.10201 2.08215 1.18399 2.04063 1.25575C1.99305 1.35083 1.91112 1.42321 1.81224 1.4575C1.67517 1.49803 1.53265 1.51595 1.39008 1.51059H0.722233L0.739534 0.572643ZM2.24825 2.59366C2.24825 2.95703 2.00139 3.13873 1.50773 3.13873H0.722233L0.739534 2.06274H1.49043C1.68975 2.04987 1.88863 2.09398 2.06485 2.19016C2.19189 2.28161 2.26174 2.43536 2.24825 2.59366Z" transform="translate(2.73242 12.4371)" fill="#5A6270"/>
</svg>
